{
  "name": "cultTransaction",
  "plural": "cultTransactions",
  "base": "PersistedModel",
  "idInjection": true,
  "options": {
    "validateUpsert": true
  },
  "properties": {
    "cultBuyId": {
      "type": "string",
      "required": true
    },
    "cultUserId":{
      "type": "string",
      "required": true
    },
    "cultProductId":{
      "type": "string",
      "required": true
    },
    "cultCategoryId":{
      "type": "string",
      "required": true
    },
    "cultTransactionQuantity": {
      "type": "string",
      "required": true
    },
    "cultTransactionDate": {
      "type": "date",
      "required": true
    },
    "cultTransactionMonth": {
      "type": "string",
      "required": true
    },
    "cultTransactionTime": {
      "type": "string",
      "required": true
    },
    "cultTransactionVerified":{
      "type":"boolean",
      "default":false
    },
    "cultTransactionOtp":{
      "type":"number"
    }
  },
  "validations": [],
  "relations": {
    "product": {
      "type": "belongsTo",
      "model": "cultProduct",
      "foreignKey": "cultProductId"
    },
    "user": {
      "type": "belongsTo",
      "model": "cultUser",
      "foreignKey": "cultUserId"
    },
    "category": {
      "type": "belongsTo",
      "model": "cultCategory",
      "foreignKey": "cultCategoryId"
    },
    "buy":{
      "type": "belongsTo",
      "model": "cultBuy",
      "foreignKey": "cultBuyId"
    }
  },
  "acls": [],
  "methods": {}
}
